-------------------------------------------------------------------------------
Test set: com.chanatip.week5.AppTest
-------------------------------------------------------------------------------
Tests run: 4, Failures: 0, Errors: 0, Skipped: 0, Time elapsed: 0.04 s - in com.chanatip.week5.AppTest
